…
### Documents

#### Search

You can search for documents using the `document_search()` function:


``` r
document_search("test")
```

```
## # A tibble: 50 × 10
##        id globalId name             created             lastModified        parentFolderId tags  tagMetaData form  owner
##     <int> <chr>    <chr>            <dttm>              <dttm>                       <int> <chr> <chr>       <chr> <chr>
##  1 424078 SD424078 test             2025-10-17 10:21:21 2025-10-17 10:21:27         242398 rspa… rspacer     Basi… Gerh…
##  2 424072 SD424072 test             2025-10-17 09:21:55 2025-10-17 09:22:01         242398 rspa… rspacer     Basi… Gerh…
##  3 422915 SD422915 251001_test_Sir… 2025-09-30 08:33:22 2025-10-07 11:51:30             NA <NA>  <NA>        Basi… Max …
##  4 421333 SD421333 250901_compare_… 2025-09-01 09:06:12 2025-09-10 13:16:24             NA <NA>  <NA>        Basi… Max …
##  5 420651 SD420651 250820_Surival_… 2025-08-19 14:34:17 2025-09-09 12:37:52             NA <NA>  <NA>        Basi… Max …
##  6 421114 SD421114 250829_test_cel… 2025-08-28 12:47:23 2025-09-09 12:06:32             NA <NA>  <NA>        Basi… Max …
##  7 421016 SD421016 250827_SAS_Kolf… 2025-08-27 07:29:23 2025-08-29 11:06:20             NA <NA>  <NA>        Basi… Max …
##  8 421238 SD421238 2025_08_25_SA00… 2025-08-29 08:59:39 2025-08-29 09:10:11             NA <NA>  <NA>        Basi… Serk…
##  9 419599 SD419599 250805_Surival_… 2025-08-05 11:25:24 2025-08-19 09:47:40             NA <NA>  <NA>        Basi… Max …
## 10 419593 SD419593 250805_Compare_… 2025-08-05 09:24:31 2025-08-19 09:37:45             NA <NA>  <NA>        Basi… Max …
## # ℹ 40 more rows
```
…
